1,Quality Assurance,y,n,"non, cursus non, egestas"
2,Customer Service,y,n,"nec, euismod in, dolor. Fusce feugiat. Lorem ipsum dolor"
3,Payroll,y,n,"tincidunt nibh. Phasellus nulla. Integer vulputate, risus a ultricies adipiscing,"
4,Customer Relations,y,n,Cras eget nisi dictum augue malesuada malesuada. Integer
5,Asset Management,y,n,at lacus. Quisque purus
6,Payroll,y,n,"ut lacus. Nulla tincidunt, neque vitae semper"
7,Advertising,y,n,"Quisque libero lacus, varius et, euismod"
8,Payroll,y,n,"nibh. Donec est mauris, rhoncus id,"
9,Payroll,y,n,"Fusce aliquam, enim nec tempus scelerisque, lorem"
10,Asset Management,y,n,Mauris vel turpis. Aliquam
11,Tech Support,y,n,cursus. Integer mollis. Integer
12,Public Relations,y,n,sit amet
13,Advertising,y,n,felis ullamcorper viverra.
14,Media Relations,y,n,tristique
15,Asset Management,y,n,Sed neque. Sed eget lacus. Mauris non dui nec urna
16,Asset Management,y,n,blandit mattis. Cras eget nisi dictum augue
17,Asset Management,y,n,nonummy. Fusce fermentum fermentum arcu. Vestibulum ante ipsum primis in
18,Sales and Marketing,y,n,In at pede. Cras vulputate velit eu
19,Public Relations,y,n,Integer sem
20,Finances,y,n,sodales
21,Sales and Marketing,y,n,ullamcorper
22,Research and Development,y,n,"feugiat nec, diam. Duis mi enim,"
23,Asset Management,y,n,"quis lectus. Nullam suscipit, est ac facilisis facilisis, magna"
24,Public Relations,y,n,"pharetra ut, pharetra"
25,Payroll,y,n,"id, erat. Etiam vestibulum massa rutrum magna. Cras convallis convallis"
26,Finances,y,n,imperdiet ornare. In
27,Human Resources,y,n,"tempor lorem, eget mollis lectus pede et risus. Quisque libero"
28,Sales and Marketing,y,n,amet luctus
29,Quality Assurance,y,n,"libero lacus,"
30,Asset Management,y,n,tellus
31,Customer Relations,y,n,"et, rutrum eu, ultrices sit amet,"
32,Customer Service,y,n,Integer tincidunt
33,Research and Development,y,n,ac arcu. Nunc mauris. Morbi non sapien molestie
34,Accounting,y,n,Nulla tempor augue ac ipsum. Phasellus
35,Finances,y,n,non dui nec urna suscipit nonummy. Fusce fermentum fermentum
36,Public Relations,y,n,Nulla dignissim. Maecenas ornare egestas ligula. Nullam
37,Legal Department,y,n,"nonummy ultricies ornare, elit"
38,Quality Assurance,y,n,"sollicitudin a, malesuada id, erat. Etiam vestibulum massa rutrum"
39,Tech Support,y,n,cursus vestibulum. Mauris magna.
40,Accounting,y,n,ac orci. Ut semper pretium neque. Morbi quis urna. Nunc
41,Media Relations,y,n,"Mauris vestibulum, neque sed dictum eleifend, nunc risus varius"
42,Finances,y,n,in lobortis tellus justo sit amet nulla. Donec non justo.
43,Customer Service,y,n,"sed dui. Fusce aliquam, enim nec"
44,Sales and Marketing,y,n,"facilisis non, bibendum sed,"
45,Asset Management,y,n,arcu ac orci. Ut semper
46,Asset Management,y,n,Donec
47,Legal Department,y,n,tristique aliquet. Phasellus
48,Public Relations,n,n,"nec, mollis"
49,Payroll,n,n,In at pede. Cras vulputate velit eu sem. Pellentesque
50,Customer Relations,n,n,"sem semper erat, in consectetuer ipsum nunc id"
51,Legal Department,n,n,Sed
52,Tech Support,n,n,gravida molestie arcu. Sed eu nibh vulputate
53,Customer Service,n,y,"et, rutrum non, hendrerit"
54,Payroll,n,y,Vestibulum ante ipsum primis in
55,Legal Department,n,y,"ornare placerat, orci lacus vestibulum lorem, sit amet ultricies"
56,Human Resources,n,y,"amet, consectetuer adipiscing elit. Curabitur sed tortor. Integer aliquam"
57,Asset Management,n,y,"ullamcorper, nisl arcu"
58,Advertising,n,y,"vulputate dui, nec tempus mauris erat eget ipsum. Suspendisse"
59,Sales and Marketing,n,y,"egestas, urna justo faucibus lectus, a sollicitudin orci"
60,Public Relations,n,y,pharetra. Quisque ac libero nec ligula consectetuer rhoncus. Nullam
61,Customer Service,n,y,tellus lorem eu
62,Human Resources,n,y,"Lorem ipsum dolor sit amet, consectetuer"
63,Tech Support,n,y,vitae mauris sit amet lorem semper auctor. Mauris vel
64,Research and Development,n,y,pretium neque. Morbi quis urna. Nunc quis arcu vel
65,Asset Management,n,y,"diam lorem, auctor"
66,Customer Service,n,y,"nunc, ullamcorper eu, euismod ac, fermentum vel, mauris."
67,Accounting,n,y,laoreet lectus
68,Media Relations,n,y,"gravida non, sollicitudin a, malesuada id,"
69,Public Relations,n,y,est tempor
70,Sales and Marketing,n,y,interdum. Nunc sollicitudin
71,Finances,n,y,eu sem. Pellentesque ut ipsum ac mi eleifend egestas.
72,Finances,n,y,lorem tristique aliquet. Phasellus fermentum convallis ligula. Donec
73,Payroll,n,y,"laoreet ipsum. Curabitur consequat, lectus sit amet luctus vulputate,"
74,Payroll,n,y,"eu, odio. Phasellus at augue id"
75,Customer Service,n,y,"facilisis non, bibendum sed, est. Nunc laoreet"
76,Customer Service,n,y,id risus quis diam luctus lobortis. Class aptent taciti sociosqu
77,Finances,n,y,volutpat. Nulla dignissim. Maecenas ornare
78,Payroll,n,y,Curabitur massa. Vestibulum accumsan neque et nunc. Quisque
79,Accounting,n,y,non justo. Proin non massa
80,Customer Service,n,y,"ullamcorper. Duis at lacus. Quisque purus sapien, gravida non,"
81,Public Relations,n,y,"lacinia mattis. Integer eu lacus. Quisque imperdiet,"
82,Asset Management,n,y,"non, cursus non,"
83,Asset Management,n,y,Donec egestas. Aliquam nec enim. Nunc ut erat. Sed
84,Customer Relations,n,y,eu enim.
85,Finances,n,y,sit
86,Media Relations,n,y,"tincidunt nibh. Phasellus nulla. Integer vulputate, risus"
87,Legal Department,n,y,Vestibulum ante ipsum primis in faucibus orci
88,Customer Service,n,y,"lectus, a sollicitudin orci"
89,Human Resources,n,y,Nulla aliquet. Proin velit. Sed malesuada augue
90,Media Relations,n,y,diam.
91,Quality Assurance,n,y,"accumsan sed, facilisis vitae, orci. Phasellus dapibus quam quis"
92,Tech Support,n,y,"sit amet, faucibus ut, nulla. Cras eu"
93,Asset Management,n,y,"enim mi tempor lorem, eget mollis lectus pede et risus."
94,Advertising,n,y,"pede, nonummy ut, molestie in, tempus"
95,Quality Assurance,n,y,nec
96,Sales and Marketing,n,y,ligula. Aenean gravida nunc sed
97,Customer Relations,n,y,nascetur ridiculus
98,Media Relations,n,y,"mattis semper,"
99,Advertising,n,y,lectus. Cum sociis natoque penatibus et magnis dis parturient
100,Sales and Marketing,n,y,aliquam arcu. Aliquam ultrices iaculis odio. Nam interdum enim non
